module github.com/mysteriumnetwork/node

go 1.19

require (
	github.com/BurntSushi/toml v1.3.2
	github.com/Microsoft/go-winio v0.6.1
	github.com/anmitsu/go-shlex v0.0.0-20200514113438-38f4b401e2be
	github.com/arthurkiller/rollingwriter v1.1.3-0.20220211070658-c19a8e8b35be
	github.com/asdine/storm/v3 v3.1.1
	github.com/aws/aws-sdk-go-v2 v1.21.2
	github.com/aws/aws-sdk-go-v2/config v1.19.0
	github.com/aws/aws-sdk-go-v2/feature/s3/manager v1.11.91
	github.com/aws/aws-sdk-go-v2/service/s3 v1.40.2
	github.com/cenkalti/backoff/v4 v4.0.0
	github.com/chzyer/readline v1.5.1
	github.com/ethereum/go-ethereum v1.13.5
	github.com/gin-contrib/cors v1.4.0
	github.com/gin-gonic/gin v1.9.1
	github.com/go-openapi/strfmt v0.21.7
	github.com/go-ozzo/ozzo-validation v3.6.0+incompatible
	github.com/gofrs/uuid v4.4.0+incompatible
	github.com/golang-jwt/jwt/v4 v4.5.0
	github.com/golang/protobuf v1.5.3
	github.com/google/go-github/v28 v28.1.1
	github.com/google/go-github/v35 v35.2.0
	github.com/huin/goupnp v1.3.0
	github.com/jackpal/gateway v1.0.6
	github.com/jinzhu/copier v0.3.5
	github.com/julienschmidt/httprouter v1.3.0
	github.com/koron/go-ssdp v0.0.4
	github.com/libp2p/go-libp2p v0.32.1
	github.com/magefile/mage v1.15.0
	github.com/mholt/archiver/v3 v3.5.1
	github.com/miekg/dns v1.1.56
	github.com/multiformats/go-multiaddr v0.12.0
	github.com/mysteriumnetwork/EventBus v0.0.0-20220415063055-d22cb121672c
	github.com/mysteriumnetwork/feedback v1.3.2
	github.com/mysteriumnetwork/go-ci v0.0.0-20220711082519-1245471bae0d
	github.com/mysteriumnetwork/go-dvpn-web/v2 v2.15.0
	github.com/mysteriumnetwork/go-openvpn v0.0.23
	github.com/mysteriumnetwork/go-rest v0.3.1
	github.com/mysteriumnetwork/go-wondershaper v1.0.1
	github.com/mysteriumnetwork/gowinlog v0.0.0-20220318151501-96eedb692646
	github.com/mysteriumnetwork/metrics v0.0.19
	github.com/mysteriumnetwork/payments v1.0.1-0.20231124140312-2092954a0c54
	github.com/mysteriumnetwork/terms v0.0.53
	github.com/nats-io/nats.go v1.31.0
	github.com/oleksandr/bonjour v0.0.0-20160508152359-5dcf00d8b228
	github.com/oschwald/geoip2-golang v1.1.0
	github.com/pion/stun v0.6.0
	github.com/pkg/errors v0.9.1
	github.com/rs/zerolog v1.31.0
	github.com/shopspring/decimal v1.3.1
	github.com/shurcooL/vfsgen v0.0.0-20200627165143-92b8a710ab6c
	github.com/songgao/water v0.0.0-20190112225332-f6122f5b2fbd
	github.com/spf13/cast v1.5.1
	github.com/stretchr/testify v1.8.4
	github.com/takama/daemon v1.0.0
	github.com/urfave/cli/v2 v2.25.7
	github.com/vcraescu/go-paginator v0.0.0-20200304054438-86d84f27c0b3
	github.com/xtaci/kcp-go/v5 v5.6.1
	go.etcd.io/bbolt v1.3.5
	golang.org/x/crypto v0.15.0
	golang.org/x/net v0.18.0
	golang.org/x/oauth2 v0.13.0
	golang.org/x/sys v0.14.0
	golang.org/x/time v0.4.0
	golang.zx2c4.com/wireguard v0.0.0-20230223181233-21636207a675
	golang.zx2c4.com/wireguard/wgctrl v0.0.0-20211230205640-daad0b7ba671
	golang.zx2c4.com/wireguard/windows v0.5.3
	google.golang.org/protobuf v1.31.0
	gvisor.dev/gvisor v0.0.0-20221203005347-703fd9b7fbc0
)

require (
	github.com/StackExchange/wmi v1.2.1 // indirect
	github.com/andybalholm/brotli v1.0.6 // indirect
	github.com/asaskevich/govalidator v0.0.0-20230301143203-a9d515a09cc2 // indirect
	github.com/aws/aws-sdk-go-v2/aws/protocol/eventstream v1.4.14 // indirect
	github.com/aws/aws-sdk-go-v2/credentials v1.13.43 // indirect
	github.com/aws/aws-sdk-go-v2/feature/ec2/imds v1.13.13 // indirect
	github.com/aws/aws-sdk-go-v2/internal/configsources v1.1.43 // indirect
	github.com/aws/aws-sdk-go-v2/internal/endpoints/v2 v2.4.37 // indirect
	github.com/aws/aws-sdk-go-v2/internal/ini v1.3.45 // indirect
	github.com/aws/aws-sdk-go-v2/internal/v4a v1.1.6 // indirect
	github.com/aws/aws-sdk-go-v2/service/internal/accept-encoding v1.9.15 // indirect
	github.com/aws/aws-sdk-go-v2/service/internal/checksum v1.1.38 // indirect
	github.com/aws/aws-sdk-go-v2/service/internal/presigned-url v1.9.37 // indirect
	github.com/aws/aws-sdk-go-v2/service/internal/s3shared v1.15.6 // indirect
	github.com/aws/aws-sdk-go-v2/service/sso v1.15.2 // indirect
	github.com/aws/aws-sdk-go-v2/service/ssooidc v1.17.3 // indirect
	github.com/aws/aws-sdk-go-v2/service/sts v1.23.2 // indirect
	github.com/aws/smithy-go v1.15.0 // indirect
	github.com/benbjohnson/clock v1.3.5 // indirect
	github.com/beorn7/perks v1.0.1 // indirect
	github.com/bits-and-blooms/bitset v1.11.0 // indirect
	github.com/btcsuite/btcd/btcec/v2 v2.3.2 // indirect
	github.com/btcsuite/btcd/chaincfg/chainhash v1.0.2 // indirect
	github.com/bytedance/sonic v1.10.2 // indirect
	github.com/cespare/xxhash/v2 v2.2.0 // indirect
	github.com/chenzhuoyu/base64x v0.0.0-20230717121745-296ad89f973d // indirect
	github.com/chenzhuoyu/iasm v0.9.0 // indirect
	github.com/consensys/bavard v0.1.13 // indirect
	github.com/consensys/gnark-crypto v0.12.1 // indirect
	github.com/containerd/cgroups v1.1.0 // indirect
	github.com/coreos/go-systemd/v22 v22.5.0 // indirect
	github.com/cpuguy83/go-md2man/v2 v2.0.2 // indirect
	github.com/crate-crypto/go-kzg-4844 v0.7.0 // indirect
	github.com/davecgh/go-spew v1.1.1 // indirect
	github.com/davidlazar/go-crypto v0.0.0-20200604182044-b73af7476f6c // indirect
	github.com/deckarep/golang-set/v2 v2.1.0 // indirect
	github.com/decred/dcrd/dcrec/secp256k1/v4 v4.2.0 // indirect
	github.com/denisenkom/go-mssqldb v0.12.3 // indirect
	github.com/didip/tollbooth/v5 v5.2.0 // indirect
	github.com/docker/go-units v0.5.0 // indirect
	github.com/dsnet/compress v0.0.2-0.20210315054119-f66993602bf5 // indirect
	github.com/elastic/gosigar v0.14.2 // indirect
	github.com/emirpasic/gods v1.12.0 // indirect
	github.com/erikstmartin/go-testdb v0.0.0-20160219214506-8d10e4a1bae5 // indirect
	github.com/ethereum/c-kzg-4844 v0.4.0 // indirect
	github.com/flynn/noise v1.0.0 // indirect
	github.com/francoispqt/gojay v1.2.13 // indirect
	github.com/fsnotify/fsnotify v1.6.0 // indirect
	github.com/gabriel-vasile/mimetype v1.4.3 // indirect
	github.com/gin-contrib/sse v0.1.0 // indirect
	github.com/go-git/gcfg v1.5.0 // indirect
	github.com/go-git/go-billy/v5 v5.1.0 // indirect
	github.com/go-git/go-git/v5 v5.3.0 // indirect
	github.com/go-ole/go-ole v1.2.5 // indirect
	github.com/go-openapi/errors v0.20.4 // indirect
	github.com/go-playground/locales v0.14.1 // indirect
	github.com/go-playground/universal-translator v0.18.1 // indirect
	github.com/go-playground/validator/v10 v10.15.5 // indirect
	github.com/go-sql-driver/mysql v1.7.1 // indirect
	github.com/go-stack/stack v1.8.1 // indirect
	github.com/go-task/slim-sprig v0.0.0-20230315185526-52ccab3ef572 // indirect
	github.com/goccy/go-json v0.10.2 // indirect
	github.com/godbus/dbus/v5 v5.1.0 // indirect
	github.com/gogo/protobuf v1.3.2 // indirect
	github.com/golang/snappy v0.0.5-0.20220116011046-fa5810519dcb // indirect
	github.com/google/btree v1.0.1 // indirect
	github.com/google/go-cmp v0.6.0 // indirect
	github.com/google/go-querystring v1.1.0 // indirect
	github.com/google/gopacket v1.1.19 // indirect
	github.com/google/pprof v0.0.0-20231101202521-4ca4178f5c7a // indirect
	github.com/google/uuid v1.3.0 // indirect
	github.com/gorilla/websocket v1.5.1 // indirect
	github.com/holiman/uint256 v1.2.3 // indirect
	github.com/imdario/mergo v0.3.12 // indirect
	github.com/ipfs/go-cid v0.4.1 // indirect
	github.com/ipfs/go-log/v2 v2.5.1 // indirect
	github.com/jackpal/go-nat-pmp v1.0.2 // indirect
	github.com/jbenet/go-context v0.0.0-20150711004518-d14ea06fba99 // indirect
	github.com/jbenet/go-temp-err-catcher v0.1.0 // indirect
	github.com/jinzhu/gorm v1.9.2 // indirect
	github.com/jinzhu/inflection v0.0.0-20180308033659-04140366298a // indirect
	github.com/jinzhu/now v1.1.5 // indirect
	github.com/jmespath/go-jmespath v0.4.0 // indirect
	github.com/josharian/native v0.0.0-20200817173448-b6b71def0850 // indirect
	github.com/json-iterator/go v1.1.12 // indirect
	github.com/kevinburke/ssh_config v1.1.0 // indirect
	github.com/klauspost/compress v1.17.2 // indirect
	github.com/klauspost/cpuid v1.3.1 // indirect
	github.com/klauspost/cpuid/v2 v2.2.6 // indirect
	github.com/klauspost/pgzip v1.2.6 // indirect
	github.com/klauspost/reedsolomon v1.9.9 // indirect
	github.com/leodido/go-urn v1.2.4 // indirect
	github.com/lib/pq v1.10.9 // indirect
	github.com/libp2p/go-buffer-pool v0.1.0 // indirect
	github.com/libp2p/go-cidranger v1.1.0 // indirect
	github.com/libp2p/go-flow-metrics v0.1.0 // indirect
	github.com/libp2p/go-libp2p-asn-util v0.3.0 // indirect
	github.com/libp2p/go-msgio v0.3.0 // indirect
	github.com/libp2p/go-nat v0.2.0 // indirect
	github.com/libp2p/go-netroute v0.2.1 // indirect
	github.com/libp2p/go-reuseport v0.4.0 // indirect
	github.com/libp2p/go-yamux/v4 v4.0.1 // indirect
	github.com/marten-seemann/tcp v0.0.0-20210406111302-dfbc87cc63fd // indirect
	github.com/mattn/go-colorable v0.1.13 // indirect
	github.com/mattn/go-isatty v0.0.20 // indirect
	github.com/mattn/go-pointer v0.0.1 // indirect
	github.com/matttproud/golang_protobuf_extensions/v2 v2.0.0 // indirect
	github.com/mdlayher/genetlink v1.1.0 // indirect
	github.com/mdlayher/netlink v1.4.2 // indirect
	github.com/mdlayher/socket v0.0.0-20211102153432-57e3fa563ecb // indirect
	github.com/mikioh/tcpinfo v0.0.0-20190314235526-30a79bb1804b // indirect
	github.com/mikioh/tcpopt v0.0.0-20190314235656-172688c1accc // indirect
	github.com/minio/sha256-simd v1.0.1 // indirect
	github.com/mitchellh/go-homedir v1.1.0 // indirect
	github.com/mitchellh/mapstructure v1.5.0 // indirect
	github.com/mmcloughlin/addchain v0.4.0 // indirect
	github.com/mmcloughlin/avo v0.0.0-20200803215136-443f81d77104 // indirect
	github.com/modern-go/concurrent v0.0.0-20180306012644-bacd9c7ef1dd // indirect
	github.com/modern-go/reflect2 v1.0.2 // indirect
	github.com/mr-tron/base58 v1.2.0 // indirect
	github.com/multiformats/go-base32 v0.1.0 // indirect
	github.com/multiformats/go-base36 v0.2.0 // indirect
	github.com/multiformats/go-multiaddr-dns v0.3.1 // indirect
	github.com/multiformats/go-multiaddr-fmt v0.1.0 // indirect
	github.com/multiformats/go-multibase v0.2.0 // indirect
	github.com/multiformats/go-multicodec v0.9.0 // indirect
	github.com/multiformats/go-multihash v0.2.3 // indirect
	github.com/multiformats/go-multistream v0.5.0 // indirect
	github.com/multiformats/go-varint v0.0.7 // indirect
	github.com/nats-io/nkeys v0.4.6 // indirect
	github.com/nats-io/nuid v1.0.1 // indirect
	github.com/nwaples/rardecode v1.1.3 // indirect
	github.com/oklog/ulid v1.3.1 // indirect
	github.com/onsi/ginkgo/v2 v2.13.1 // indirect
	github.com/opencontainers/runtime-spec v1.1.0 // indirect
	github.com/oschwald/maxminddb-golang v1.12.0 // indirect
	github.com/patrickmn/go-cache v2.1.0+incompatible // indirect
	github.com/pbnjay/memory v0.0.0-20210728143218-7b4eea64cf58 // indirect
	github.com/pelletier/go-toml/v2 v2.1.0 // indirect
	github.com/pierrec/lz4/v4 v4.1.18 // indirect
	github.com/pion/dtls/v2 v2.2.7 // indirect
	github.com/pion/logging v0.2.2 // indirect
	github.com/pion/transport/v2 v2.2.1 // indirect
	github.com/pmezard/go-difflib v1.0.0 // indirect
	github.com/prometheus/client_golang v1.17.0 // indirect
	github.com/prometheus/client_model v0.5.0 // indirect
	github.com/prometheus/common v0.45.0 // indirect
	github.com/prometheus/procfs v0.12.0 // indirect
	github.com/quic-go/qpack v0.4.0 // indirect
	github.com/quic-go/qtls-go1-20 v0.4.1 // indirect
	github.com/quic-go/quic-go v0.40.0 // indirect
	github.com/quic-go/webtransport-go v0.6.0 // indirect
	github.com/raulk/go-watchdog v1.3.0 // indirect
	github.com/robfig/cron v1.2.0 // indirect
	github.com/russross/blackfriday/v2 v2.1.0 // indirect
	github.com/sergi/go-diff v1.1.0 // indirect
	github.com/shirou/gopsutil v3.21.4-0.20210419000835-c7a38de76ee5+incompatible // indirect
	github.com/shurcooL/httpfs v0.0.0-20190707220628-8d4bc4ba7749 // indirect
	github.com/spaolacci/murmur3 v1.1.0 // indirect
	github.com/supranational/blst v0.3.11 // indirect
	github.com/templexxx/cpu v0.0.7 // indirect
	github.com/templexxx/xorsimd v0.4.1 // indirect
	github.com/tjfoc/gmsm v1.3.2 // indirect
	github.com/tklauser/go-sysconf v0.3.12 // indirect
	github.com/tklauser/numcpus v0.6.1 // indirect
	github.com/twitchyliquid64/golang-asm v0.15.1 // indirect
	github.com/ugorji/go/codec v1.2.11 // indirect
	github.com/ulikunitz/xz v0.5.11 // indirect
	github.com/xanzy/ssh-agent v0.3.0 // indirect
	github.com/xi2/xz v0.0.0-20171230120015-48954b6210f8 // indirect
	github.com/xrash/smetrics v0.0.0-20201216005158-039620a65673 // indirect
	go.mongodb.org/mongo-driver v1.12.1 // indirect
	go.uber.org/dig v1.17.1 // indirect
	go.uber.org/fx v1.20.1 // indirect
	go.uber.org/mock v0.3.0 // indirect
	go.uber.org/multierr v1.11.0 // indirect
	go.uber.org/zap v1.26.0 // indirect
	golang.org/x/arch v0.5.0 // indirect
	golang.org/x/exp v0.0.0-20231110203233-9a3e6036ecaa // indirect
	golang.org/x/exp/typeparams v0.0.0-20221208152030-732eee02a75a // indirect
	golang.org/x/mod v0.14.0 // indirect
	golang.org/x/sync v0.5.0 // indirect
	golang.org/x/text v0.14.0 // indirect
	golang.org/x/tools v0.15.0 // indirect
	golang.zx2c4.com/wintun v0.0.0-20230126152724-0fa3db229ce2 // indirect
	google.golang.org/appengine v1.6.8 // indirect
	gopkg.in/intercom/intercom-go.v2 v2.0.0-20210504094731-2bd1af0ce4b2 // indirect
	gopkg.in/warnings.v0 v0.1.2 // indirect
	gopkg.in/yaml.v3 v3.0.1 // indirect
	honnef.co/go/tools v0.4.2 // indirect
	lukechampine.com/blake3 v1.2.1 // indirect
	rsc.io/tmplfunc v0.0.3 // indirect
)

replace (
	golang.zx2c4.com/wireguard => github.com/mysteriumnetwork/wireguard-go v0.0.0-20231211132832-8f7bf3c68307
	gvisor.dev/gvisor => github.com/mysteriumnetwork/gvisor v0.0.0-20240206094932-ff91e662b9e8
)
